<svg xmlns="http://www.w3.org/2000/svg" xmlns:xlink="http://www.w3.org/1999/xlink" width="237" height="83" viewBox="0 0 237 83">
    <defs>
        <path id="prefix__a" d="M0 0H237V83H0z"/>
        <path id="prefix__c" d="M0.147 0.317L24.646 0.317 24.646 49.565 0.147 49.565z"/>
        <path id="prefix__e" d="M0 0.134L36.396 0.134 36.396 21.665 0 21.665z"/>
    </defs>
    <g fill="none" fill-rule="evenodd">
        <mask id="prefix__b" fill="#fff">
            <use xlink:href="#prefix__a"/>
        </mask>
        <g mask="url(#prefix__b)">
            <g>
                <path fill="#231F20" d="M45.619 61.393c1.799 1.141 5.495 2.765 8.774 2.785 2.517.015 5.088-.772 5.11-4.305.017-2.968-2.686-3.88-6.007-4.795-4.696-1.3-9.056-3.162-9.02-9.193.034-5.748 4.521-9.208 10.745-9.172 4.42.026 8.4 1.982 10.855 4.493l-3.111 3.799c-2.458-2.04-5.16-3.376-7.773-3.391-2.138-.013-4.661.867-4.678 3.789-.018 2.92 2.732 3.832 6.29 4.936 4.315 1.392 8.866 3.257 8.83 9.334-.038 6.22-4.525 9.539-11.367 9.499-4.656-.027-9.206-1.893-10.815-3.079l2.167-4.7zM69.606 68.696L69.8 35.95l5.654.033-.065 11.025c1.626-1.828 4.007-2.662 6.43-2.647 4.989.029 7.633 2.777 7.6 8.336l-.096 16.114-5.654-.033.09-15.124c.017-2.733-.54-4.951-3.629-4.969-2.708-.016-4.765 2.234-4.78 4.637l-.091 15.406-5.654-.033zM94.396 68.841l.14-23.698 5.655.033-.141 23.699-5.654-.034zm3.003-33.624c1.949.012 3.27 1.433 3.26 3.176-.01 1.791-1.397 3.102-3.297 3.091-1.995-.012-3.27-1.338-3.26-3.129.01-1.744 1.35-3.15 3.297-3.138zM111.537 78.837l-5.654-.034.208-34.912c.022-3.77.907-8.57 8.271-8.528 2.091.013 4.985.785 6.595 1.69l-1.4 3.76c-1.374-.715-3.176-1.197-4.507-1.204-2.376-.014-3.286 1.3-3.302 3.891l-.01 1.743 7.031.042-.025 4.382-7.033-.042-.174 29.212zM128.438 36.295l-.055 9.046 6.415.038-.026 4.382-6.414-.038-.072 11.967c-.018 2.874 1.119 3.729 3.066 3.741 1.283.007 2.474-.505 3.237-.97l1.404 3.635c-1.432.981-3.811 1.627-6.045 1.614-7.41-.043-7.337-4.566-7.317-7.865l.153-25.583 5.654.033z" transform="translate(1.881)"/>
                <path fill="#535456" d="M149.684 53.617c4.133.025 6.945-1.372 6.97-5.565.029-4.853-2.77-5.624-7.426-5.65l-2.898-.018-.068 11.214 3.422.02zm-3.514 15.529l-5.797-.035.187-31.33 10.882.063c6.984.04 11.24 3.363 11.203 9.677-.043 7.161-5.197 10.713-12.371 10.67l-4.039-.024-.065 10.979zM165.481 69.259l.141-23.699 5.655.034-.142 23.699-5.654-.034zm3.004-33.624c1.949.012 3.27 1.432 3.26 3.176-.01 1.79-1.397 3.102-3.297 3.09-1.995-.012-3.27-1.339-3.26-3.128.01-1.744 1.35-3.15 3.297-3.138zM196.222 45.74L188.458 57.096 196.509 69.442 190.379 69.405 185.25 61.224 179.926 69.344 173.845 69.307 182.28 57.106 174.889 45.615 180.923 45.649 185.535 53.215 190.521 45.706zM208.244 77.992c3.326.019 4.437-3.037 4.462-7.278l.024-3.957c-4.193 1.954-7.629 4.242-7.652 8.2-.011 1.838 1.028 3.021 3.166 3.035m9.626-4.844c-.935 5.648-4.376 8.926-10.316 8.892-5.131-.03-7.682-2.45-7.66-6.218.02-3.534 2.412-6.205 5.037-8.027-3.893-.588-6.302-2.959-6.274-7.67l.086-14.37 5.654.032-.08 13.381c-.018 3.063.253 5.326 4.007 5.349 2.71.015 4.38-1.436 4.396-4.122l.088-14.558 5.606.033-.123 20.73c-.012 1.744-.173 4.994-.42 6.548" transform="translate(1.881)"/>
                <g transform="translate(1.881) translate(6.583 .615)">
                    <mask id="prefix__d" fill="#fff">
                        <use xlink:href="#prefix__c"/>
                    </mask>
                    <path fill="#9677B5" d="M23.795 49.565c-3.796-4.836-6.047-10.919-6.008-17.523.042-6.962 2.621-13.319 6.86-18.222C15.47 3.862 1.848.317 1.848.317s-5.36 18.543 2.94 32.994c4.73 8.237 12.874 13.364 19.006 16.254" mask="url(#prefix__d)"/>
                </g>
                <path fill="#7E54A1" d="M30.378 50.18c4.627 2.18 8.112 3.089 8.112 3.089s5.36-18.544-2.94-32.995c-1.237-2.155-2.712-4.094-4.32-5.839-4.238 4.904-6.818 11.26-6.86 18.223-.039 6.603 2.213 12.687 6.008 17.522" transform="translate(1.881)"/>
                <path fill="#383372" d="M30.378 50.18c4.627 2.18 8.112 3.089 8.112 3.089s5.36-18.544-2.94-32.995c-1.237-2.155-2.712-4.094-4.32-5.839-4.238 4.904-6.818 11.26-6.86 18.223-.039 6.603 2.213 12.687 6.008 17.522" transform="translate(1.881)"/>
                <g transform="translate(1.881) translate(0 61.018)">
                    <mask id="prefix__f" fill="#fff">
                        <use xlink:href="#prefix__e"/>
                    </mask>
                    <path fill="#BDDDA8" d="M23.288 6.281c-5.425.584-10.6-.829-14.793-3.639C1.555 10.546 0 21.286 0 21.286s14.909 2.463 25.423-5.168C31.418 11.768 34.69 5.083 36.396.134c-3.429 3.332-7.965 5.593-13.108 6.147" mask="url(#prefix__f)"/>
                </g>
                <path fill="#8BC559" d="M23.288 67.3c5.143-.554 9.679-2.816 13.108-6.148 1.288-3.735 1.687-6.482 1.687-6.482s-14.91-2.464-25.425 5.167c-1.568 1.138-2.946 2.438-4.163 3.824 4.192 2.81 9.368 4.222 14.793 3.638" transform="translate(1.881)"/>
                <path fill="#66AC44" d="M23.288 67.3c5.143-.554 9.679-2.816 13.108-6.148 1.288-3.735 1.687-6.482 1.687-6.482s-14.91-2.464-25.425 5.167c-1.568 1.138-2.946 2.438-4.163 3.824 4.192 2.81 9.368 4.222 14.793 3.638" transform="translate(1.881)"/>
                <path fill="#535456" d="M227.21 50.096l.799.005c.57.003.986-.059 1.25-.186.265-.13.398-.372.4-.729.002-.41-.092-.667-.285-.774-.193-.107-.618-.163-1.275-.167l-.878-.005-.01 1.856zm-1.542 3.86l.041-6.921 2.381.014c1.081.006 1.872.182 2.374.527.502.345.75.853.747 1.526-.007 1.03-.504 1.66-1.492 1.887l1.517 2.999-1.683-.01-1.269-2.773-1.073-.006-.016 2.765-1.527-.009zm2.575 1.56c.669.003 1.306-.126 1.914-.388.607-.264 1.13-.617 1.568-1.06.439-.443.79-.97 1.05-1.581.263-.613.397-1.25.4-1.913.004-.668-.12-1.31-.376-1.924-.254-.616-.597-1.149-1.027-1.603-.431-.452-.95-.816-1.557-1.089-.607-.272-1.244-.41-1.912-.415-.669-.003-1.308.127-1.918.393-.61.266-1.134.623-1.573 1.07-.438.448-.787.978-1.047 1.59-.26.613-.391 1.252-.395 1.92-.005.89.206 1.718.635 2.482.429.763 1.02 1.372 1.771 1.828.751.455 1.574.684 2.467.69zm-.005.845c-.794-.004-1.554-.163-2.28-.475-.727-.312-1.352-.73-1.877-1.257-.524-.526-.94-1.151-1.249-1.875-.31-.724-.461-1.48-.457-2.267.005-.793.167-1.548.485-2.269.317-.72.74-1.339 1.271-1.856.53-.517 1.159-.929 1.888-1.236.727-.306 1.49-.456 2.289-.452.8.004 1.56.164 2.288.479.727.316 1.352.735 1.876 1.258.524.523.94 1.147 1.25 1.871.309.724.462 1.482.456 2.274-.005.787-.166 1.542-.483 2.262-.317.72-.742 1.34-1.273 1.86-.53.52-1.16.932-1.89 1.235-.73.304-1.495.454-2.294.448z" transform="translate(1.881)"/>
            </g>
        </g>
    </g>
</svg>
